{
  "$schema": "https://raw.githubusercontent.com/microsoft/vcpkg/master/scripts/vcpkg.schema.json",
  "name": "gluino",
  "version-string": "0.0.1",
  "description": "A cutting-edge header-only utility library for C++ which extends the STL useful missing functionality.",
  "homepage": "https://www.gitlab.com/colorglass/gluino",
  "license": "Apache-2.0",
  "features": {
    "tests": {
      "description": "Build and run the unit tests.",
      "dependencies": [
        "cityhash",
        "farmhash",
        "gtest",
        "libcds",
        "libcuckoo",
        "metrohash",
        "parallel-hashmap",
        "pcg",
        "robin-hood-hashing",
        "robin-map",
        "tbb",
        "tsl-hopscotch-map",
        "tsl-ordered-map",
        "tsl-sparse-map",
        "xxhash"
      ]
    }
  },
  "default-features": ["tests"]
}
